{
	"name": "Thrive V2",
	"authors": ["_Rascal"],
	"version": "2.0.0",
	"gametype": "DTM",
	"teams": [{
			"id": "blue",
			"name": "Blue",
			"color": "blue",
			"max": 50,
			"min": 1
		},
		{
			"id": "red",
			"name": "Red",
			"color": "red",
			"max": 50,
			"min": 1
		}
	],
	"spawns": [{
			"teams": ["spectators"],
			"coords": "-58.5, 56, -48.5, -90"
		},
		{
			"teams": ["red"],
			"coords": "0.5, 18, -95.5"
		},
		{
			"teams": ["blue"],
			"coords": "0.5, 18, -1.5, 180"
		}
	],
	"dtm": {
		"monuments": [{
				"name": "Red Wool",
				"teams": ["red"],
				"materials": ["wool"],
				"region": {
					"min": "-46, 18, -88",
					"max": "46, 22, -86"
				},
				"health": 10
			},
			{
				"name": "Blue Wool",
				"teams": ["blue"],
				"materials": ["wool"],
				"region": {
					"min": "-46, 22, -12",
					"max": "46, 18, -10"
				},
				"health": 10
			}
		]
	},
	"killstreaks": [{
			"count": 1,
			"repeat": true,
			"commands": ["give %killername% minecraft:golden_apple 1"]
		},
		{
			"count": 5,
			"repeat": true,
			"commands": ["execute %killername% ~ ~ ~ playsound entity.zombie.death master @a ~ ~ ~ 3",
				"give %killername% minecraft:arrow 10"
			]
		}
	],
	"kits": [{
		"name": "Default",
		"items": [{
				"type": "item",
				"material": "iron sword",
				"slot": 0,
				"unbreakable": true
			},
			{
				"type": "item",
				"material": "bow",
				"slot": 1,
				"unbreakable": true
			},
			{
				"type": "item",
				"material": "iron axe",
				"slot": 2,
				"unbreakable": true
			},
			{
				"type": "item",
				"material": "wood",
				"slot": 3,
				"amount": 64
			},
			{
				"type": "item",
				"material": "arrow",
				"slot": 9,
				"amount": 32
			},
			{
				"type": "item",
				"material": "cooked beef",
				"slot": 8,
				"amount": 64
			},

			{
				"type": "item",
				"material": "iron helmet",
				"slot": "helmet",
				"unbreakable": true
			},
			{
				"type": "item",
				"material": "leather chestplate",
				"slot": "chestplate",
				"unbreakable": true
			},
			{
				"type": "item",
				"material": "leather leggings",
				"slot": "leggings",
				"unbreakable": true
			},
			{
				"type": "item",
				"material": "iron boots",
				"slot": "boots",
				"unbreakable": true
			}
		]
	}],
	"itemremove": [
		"iron helmet", "leather chestplate", "leather leggings", "iron boots", "wool"
	],
	"filters": [{
			"type": "build",
			"evaluate": "deny",
			"teams": ["blue", "red"],
			"regions": ["blue-spawn-protection", "red-spawn-protection"],
			"message": "&cYou are not allowed to modify terrain here."
		},
		{
			"type": "enter",
			"evaluate": "deny",
			"teams": ["blue"],
			"regions": ["red-spawn-protection"],
			"message": "&cYou may not enter the enemy spawn."
		},
		{
			"type": "enter",
			"evaluate": "deny",
			"teams": ["red"],
			"regions": ["blue-spawn-protection"],
			"message": "&cYou may not enter the enemy spawn."
		}
	],
	"regions": [{
			"id": "blue-spawn-protection",
			"type": "cuboid",
			"min": "-3, 16, -6",
			"max": "5, 25, 1"
		},
		{
			"id": "red-spawn-protection",
			"type": "cuboid",
			"min": "3, 16, -92",
			"max": "-5, 25, -99"
		}

	]
}
