{
	"name": "Rendezvous Redux",
	"authors": ["ParaPenguin and Pavlo"],
	"version": "1.1.0",
	"gametype": "DTM",
	"teams": [
		{
			"id": "blue",
			"name": "Blue",
			"color": "blue",
			"max": 50,
			"min": 1
		},
		{
			"id": "red",
			"name": "Red",
			"color": "red",
			"max": 50,
			"min": 1
		}
	],
	"spawns": [
		{"teams": ["spectators"], "coords": "12.5, 54, -897.5"},
		{"teams": ["blue"], "coords": "-44.5, 27, -797.5, -90"},
		{"teams": ["red"], "coords": "69.5, 27, -797.5, 90"}
	],
	"dtm": {
		"monuments": [
			{
				"name": "Left Monument",
				"teams": ["blue"],
				"materials": ["obsidian"],
				"region": { 
					"min": "-84, 37, -832",
					"max": "-84, 37, -832" 
				},
				"health": 1
			},
			{
				"name": "Right Monument",
				"teams": ["blue"],
				"materials": ["obsidian"],
				"region": { 
					"min": "-84, 37, -764",
					"max": "-84, 37, -764" 
				},
				"health": 1
			},
			{
				"name": "Left Monument&r",
				"teams": ["red"],
				"materials": ["obsidian"],
				"region": {
					"min": "108, 37, -764",
					"max": "108, 37, -764"
				},
				"health": 1
			},
			{
				"name": "Right Monument&r",
				"teams": ["red"],
				"materials": ["obsidian"],
				"region": {
					"min": "108, 37, -832",
					"max": "108, 37, -832"
				},
				"health": 1
			}
		]
	},
	"killstreaks": [{
		"count": 1,
		"repeat": true,
		"commands": ["give %killername% minecraft:golden_apple 1"]
	                 }
               ],
	"kits": [
		{
			"name": "Default",
			"items": [
				{"type": "item", "material": "iron sword", "slot": 0, "unbreakable": true},
				{"type": "item", "material": "bow", "slot": 1, "unbreakable": true},
				{"type": "item", "material": "diamond pickaxe", "slot": 2, "unbreakable": true},
				{"type": "item", "material": "stone axe", "slot": 3, "unbreakable": true},
				{"type": "item", "material": "wood", "slot": 4, "amount": 64},
				{"type": "item", "material": "glass", "slot": 5, "amount": 64},
				{"type": "item", "material": "golden apple", "slot": 7, "amount": 1},
				{"type": "item", "material": "cooked beef", "slot": 8, "amount": 64},
				{"type": "item", "material": "arrow", "slot": 9, "amount": 64},

				{"type": "item", "material": "leather helmet", "slot": "helmet", "unbreakable": true},
				{"type": "item", "material": "chainmail chestplate", "slot": "chestplate", "unbreakable": true},
				{"type": "item", "material": "leather leggings", "slot": "leggings", "unbreakable": true},
				{"type": "item", "material": "iron boots", "slot": "boots", "unbreakable": true}
			]
		}
	],
	"itemremove": [
		"leather helmet", "chainmail chestplate", "leather leggings", "iron boots", "arrow", "iron sword"
	],	
	"filters": [
		{
			"type": "build", "evaluate": "deny", "teams": ["blue", "red"],
			"regions": ["blue-spawn-protection", "red-spawn-protection"],
			"message": "&cYou are not allowed to modify terrain here."
		},
		{"type": "enter", "evaluate": "deny", "teams": ["blue"], "regions": ["red-spawn-protection"], "message": "&cYou may not enter the enemy spawn." },
		{"type": "enter", "evaluate": "deny", "teams": ["red"], "regions": ["blue-spawn-protection"], "message": "&cYou may not enter the enemy spawn." }
	],
	"regions": [
		{"id": "blue-spawn-protection", "type": "cuboid", "min": "-46, 0, -796", "max": "-33, oo, -803"},
		{"id": "red-spawn-protection", "type": "cuboid", "min": "57, 0, -793", "max": "71, oo, -803"}
	]
}