{
	"name": "Ancient Cistern",
	"authors": ["Mega_Rascal"],
	"version": "1.0",
	"gametype": "DTM",
	"teams": [
		{
			"id": "blue",
			"name": "Blue",
			"color": "blue",
			"max": 50,
			"min": 1
		},
		{
			"id": "red",
			"name": "Red",
			"color": "red",
			"max": 50,
			"min": 1
		}
	],
	"spawns": [
		{"teams": ["spectators"], "coords": "-71.5, 84, 109.5, -90"},
		{"teams": ["red"], "coords": "-2.5, 46, -14.5"},
		{"teams": ["blue"], "coords": "-2.5, 46, 227.5, 180"}
	],
	"dtm": {
		"monuments": [
			{
				"name": "Red Wool",
				"teams": ["red"],
				"materials": ["wool"],
				"region": {
					"min": "-34, 48, 24",
					"max": "33, 44, 29"
				},
				"health": 10
			},
			{
				"name": "Blue Wool",
				"teams": ["blue"],
				"materials": ["wool"],
				"region": {
					"min": "-39, 44, 183",
					"max": "28, 48, 188"
				},
				"health": 10
			}
		]
	},
	"killstreaks": [{
		"count": 1,
		"repeat": true,
		"commands": ["give %killername% minecraft:golden_apple 1",
			"give %killername% minecraft:arrow 3"
		]
	}],
	"kits": [
		{
			"name": "Default",
			"items": [
				{"type": "item", "material": "iron sword", "slot": 0, "unbreakable": true},
				{"type": "item", "material": "bow", "slot": 1, "unbreakable": true},
				{"type": "item", "material": "iron axe", "slot": 2, "unbreakable": true},
				{"type": "item", "material": "wood", "slot": 3, "amount": 64},
				{"type": "item", "material": "arrow", "slot": 9, "amount": 32},
				{"type": "item", "material": "cooked beef", "slot": 8, "amount": 64},

				{"type": "item", "material": "iron helmet", "slot": "helmet", "unbreakable": true},
				{"type": "item", "material": "leather chestplate", "slot": "chestplate", "unbreakable": true},
				{"type": "item", "material": "leather leggings", "slot": "leggings", "unbreakable": true},
				{"type": "item", "material": "iron boots", "slot": "boots", "unbreakable": true}
			]
		}
	],
	"itemremove": [
		"iron helmet", "leather chestplate", "leather leggings", "iron boots", "wool"
	],
	"filters": [
		{
			"type": "build", "evaluate": "deny", "teams": ["blue", "red"],
			"regions": ["blue-spawn-protection", "red-spawn-protection"],
			"message": "&cYou are not allowed to modify terrain here."
		},
		{"type": "enter", "evaluate": "deny", "teams": ["blue"], "regions": ["red-spawn-protection"], "message": "&cYou may not enter the enemy spawn."},
		{"type": "enter", "evaluate": "deny", "teams": ["red"], "regions": ["blue-spawn-protection"], "message": "&cYou may not enter the enemy spawn."}
	],
	"regions": [
		{"id": "blue-spawn-protection", "type": "cuboid", "min": "-14, 0, 216", "max": "8, oo, 232"},
		{"id": "red-spawn-protection", "type": "cuboid", "min": "-14, 0, -20", "max": "8, oo, -4"}
	]
}